<svg version="1.1" width="144px" height="144px" viewBox="0 0 32 32" xmlns="http://www.w3.org/2000/svg" xmlns:xlink="http://www.w3.org/1999/xlink">
	<polygon id="bell" fill="#FFFFFF" stroke="#000000" stroke-width="0.2" points="9,0 10,0 10,5 8,5"/>
	<use xlink:href="#bell" transform="scale(-1,1) translate(-32,0)"/>
	<use xlink:href="#bell" transform="scale(1,-1) translate(0,-32)"/>
	<use xlink:href="#bell" transform="scale(-1,-1) translate(-32,-32)"/>
	<circle fill="#FFFFFF" stroke="#000000" stroke-width="0.2" cx="16" cy="16" r="14"/>
	<circle fill="#FFFFFF" stroke="#000000" stroke-width="0.2" cx="16" cy="16" r="12"/>
	<polyline id="second-1" fill="none" stroke="#000000" stroke-width="0.3" points="16,5 16,6"/>
	<use xlink:href="#second-1" transform="rotate(6 16,16)"/>
	<use xlink:href="#second-1" transform="rotate(12 16,16)"/>
	<use xlink:href="#second-1" transform="rotate(18 16,16)"/>
	<use xlink:href="#second-1" transform="rotate(24 16,16)"/>
	<use xlink:href="#second-1" transform="rotate(30 16,16)"/>
	<use xlink:href="#second-1" transform="rotate(36 16,16)"/>
	<use xlink:href="#second-1" transform="rotate(42 16,16)"/>
	<use xlink:href="#second-1" transform="rotate(48 16,16)"/>
	<use xlink:href="#second-1" transform="rotate(54 16,16)"/>
	<use xlink:href="#second-1" transform="rotate(60 16,16)"/>
	<use xlink:href="#second-1" transform="rotate(66 16,16)"/>
	<use xlink:href="#second-1" transform="rotate(72 16,16)"/>
	<use xlink:href="#second-1" transform="rotate(78 16,16)"/>
	<use xlink:href="#second-1" transform="rotate(84 16,16)"/>
	<use xlink:href="#second-1" transform="rotate(90 16,16)"/>
	<use xlink:href="#second-1" transform="rotate(96 16,16)"/>
	<use xlink:href="#second-1" transform="rotate(102 16,16)"/>
	<use xlink:href="#second-1" transform="rotate(108 16,16)"/>
	<use xlink:href="#second-1" transform="rotate(114 16,16)"/>
	<use xlink:href="#second-1" transform="rotate(120 16,16)"/>
	<use xlink:href="#second-1" transform="rotate(126 16,16)"/>
	<use xlink:href="#second-1" transform="rotate(132 16,16)"/>
	<use xlink:href="#second-1" transform="rotate(138 16,16)"/>
	<use xlink:href="#second-1" transform="rotate(144 16,16)"/>
	<use xlink:href="#second-1" transform="rotate(150 16,16)"/>
	<use xlink:href="#second-1" transform="rotate(156 16,16)"/>
	<use xlink:href="#second-1" transform="rotate(162 16,16)"/>
	<use xlink:href="#second-1" transform="rotate(168 16,16)"/>
	<use xlink:href="#second-1" transform="rotate(174 16,16)"/>
	<use xlink:href="#second-1" transform="rotate(180 16,16)"/>
	<use xlink:href="#second-1" transform="rotate(186 16,16)"/>
	<use xlink:href="#second-1" transform="rotate(192 16,16)"/>
	<use xlink:href="#second-1" transform="rotate(198 16,16)"/>
	<use xlink:href="#second-1" transform="rotate(204 16,16)"/>
	<use xlink:href="#second-1" transform="rotate(210 16,16)"/>
	<use xlink:href="#second-1" transform="rotate(216 16,16)"/>
	<use xlink:href="#second-1" transform="rotate(222 16,16)"/>
	<use xlink:href="#second-1" transform="rotate(228 16,16)"/>
	<use xlink:href="#second-1" transform="rotate(234 16,16)"/>
	<use xlink:href="#second-1" transform="rotate(240 16,16)"/>
	<use xlink:href="#second-1" transform="rotate(246 16,16)"/>
	<use xlink:href="#second-1" transform="rotate(252 16,16)"/>
	<use xlink:href="#second-1" transform="rotate(258 16,16)"/>
	<use xlink:href="#second-1" transform="rotate(264 16,16)"/>
	<use xlink:href="#second-1" transform="rotate(270 16,16)"/>
	<use xlink:href="#second-1" transform="rotate(276 16,16)"/>
	<use xlink:href="#second-1" transform="rotate(282 16,16)"/>
	<use xlink:href="#second-1" transform="rotate(288 16,16)"/>
	<use xlink:href="#second-1" transform="rotate(294 16,16)"/>
	<use xlink:href="#second-1" transform="rotate(300 16,16)"/>
	<use xlink:href="#second-1" transform="rotate(306 16,16)"/>
	<use xlink:href="#second-1" transform="rotate(312 16,16)"/>
	<use xlink:href="#second-1" transform="rotate(318 16,16)"/>
	<use xlink:href="#second-1" transform="rotate(324 16,16)"/>
	<use xlink:href="#second-1" transform="rotate(330 16,16)"/>
	<use xlink:href="#second-1" transform="rotate(336 16,16)"/>
	<use xlink:href="#second-1" transform="rotate(342 16,16)"/>
	<use xlink:href="#second-1" transform="rotate(348 16,16)"/>
	<use xlink:href="#second-1" transform="rotate(354 16,16)"/>
	<polyline id="second-5" fill="none" stroke="#000000" stroke-width="0.6" points="16,7 16,9"/>
	<use xlink:href="#second-5" transform="rotate(30 16,16)"/>
	<use xlink:href="#second-5" transform="rotate(60 16,16)"/>
	<use xlink:href="#second-5" transform="rotate(90 16,16)"/>
	<use xlink:href="#second-5" transform="rotate(120 16,16)"/>
	<use xlink:href="#second-5" transform="rotate(150 16,16)"/>
	<use xlink:href="#second-5" transform="rotate(180 16,16)"/>
	<use xlink:href="#second-5" transform="rotate(210 16,16)"/>
	<use xlink:href="#second-5" transform="rotate(240 16,16)"/>
	<use xlink:href="#second-5" transform="rotate(270 16,16)"/>
	<use xlink:href="#second-5" transform="rotate(300 16,16)"/>
	<use xlink:href="#second-5" transform="rotate(330 16,16)"/>
	<polyline fill="none" stroke="#000000" stroke-width="0.2" points="16,5 16,16" transform="rotate(198 16,16)"/>
	<polyline fill="none" stroke="#000000" stroke-width="0.4" points="16,8 16,16" transform="rotate(60 16,16)"/>
	<polyline fill="none" stroke="#000000" stroke-width="0.8" points="16,11 16,16" transform="rotate(-60 16,16)"/>
	<circle fill="#000000" cx="16" cy="16" r="1"/>
	<path d="m 10.50002,19.999907 c 0,0.599941 0.43325,0.766601 0.83334,1.133501 v 1.199901 C 11.33336,22.69984 11.63333,23 12.00002,23 h 0.66666 c 0.36668,0 0.66668,-0.30012 0.66668,-0.666691 v -0.66666 h 5.3333 v 0.66666 C 18.66666,22.69984 18.96678,23 19.33334,23 H 20 c 0.36653,0 0.66666,-0.30012 0.66666,-0.666691 V 21.133408 C 21.06675,20.766538 21.5,20.566688 21.5,19.999907 V 13.635402 C 21.5,11.3021 18.9333,11 16,11 c -2.9332,0 -5.5,0.3021 -5.5,2.635402 z m 2.5,0.499661 c -0.56675,0 -1,-0.43324 -1,-1.000001 0,-0.56672 0.43325,-1.000001 1,-1.000001 0.56674,0 1,0.433281 1,1.000001 0,0.566751 -0.43325,1.000001 -1,1.000001 z m 6,0 c -0.566749,0 -1,-0.43324 -1,-1.000001 0,-0.56672 0.433251,-1.000001 1,-1.000001 0.566741,0 1,0.433281 1,1.000001 0,0.566751 -0.433249,1.000001 -1,1.000001 z m 1,-3.833003 h -8 v -3.333303 h 8 z" fill="#FF0000"/>
</svg>