<?xml version="1.0" encoding="UTF-8"?>
<!DOCTYPE svg PUBLIC "-//W3C//DTD SVG 1.1 Basic//EN" "http://www.w3.org/Graphics/SVG/1.1/DTD/svg11-basic.dtd">
<svg xmlns="http://www.w3.org/2000/svg" version="1.2" width="128" height="128">
	<circle cx="64" cy="64" r="64" fill="#FF80FF"/>
	<text x="64" y="100" text-anchor="middle" font-size="12" font-family="OCRA std">Subtitle</text>
</svg>